<?xml version="1.0" encoding="utf-8"?>
<!-- Generator: Adobe Illustrator 16.2.0, SVG Export Plug-In . SVG Version: 6.00 Build 0)  -->
<!DOCTYPE svg PUBLIC "-//W3C//DTD SVG 1.1//EN" "http://www.w3.org/Graphics/SVG/1.1/DTD/svg11.dtd">
<svg version="1.1" id="Слой_1" xmlns="http://www.w3.org/2000/svg" xmlns:xlink="http://www.w3.org/1999/xlink" x="0px" y="0px"
	 width="78px" height="78px" viewBox="0 0 78 78" enable-background="new 0 0 78 78" xml:space="preserve">
<path d="M77.575,75.508L54.849,52.749c5.797-5.596,9.388-13.314,9.388-21.823C64.237,13.872,49.83,0,32.12,0
	C14.407,0,0,13.872,0,30.926c0,17.052,14.407,30.926,32.12,30.926c7.772,0,14.908-2.677,20.468-7.117l22.781,22.813
	C75.668,77.851,76.068,78,76.47,78c0.384,0,0.765-0.136,1.061-0.411C78.141,77.026,78.157,76.093,77.575,75.508z M42.825,33.869
	h-7.647v7.364c0,1.627-1.371,2.946-3.058,2.946c-1.689,0-3.06-1.319-3.06-2.946v-7.364h-7.647c-1.689,0-3.058-1.319-3.058-2.943
	c0-1.627,1.369-2.946,3.058-2.946h7.647v-7.361c0-1.627,1.371-2.946,3.06-2.946c1.687,0,3.058,1.319,3.058,2.946v7.361h7.647
	c1.689,0,3.058,1.319,3.058,2.946C45.882,32.55,44.514,33.869,42.825,33.869z"/>
</svg>
