<?xml version="1.0" encoding="utf-8"?>
<!-- Generator: Adobe Illustrator 16.2.0, SVG Export Plug-In . SVG Version: 6.00 Build 0)  -->
<!DOCTYPE svg PUBLIC "-//W3C//DTD SVG 1.1//EN" "http://www.w3.org/Graphics/SVG/1.1/DTD/svg11.dtd">
<svg version="1.1" id="Слой_1" xmlns="http://www.w3.org/2000/svg" xmlns:xlink="http://www.w3.org/1999/xlink" x="0px" y="0px"
	 width="32px" height="22px" viewBox="0 0 32 22" enable-background="new 0 0 32 22" xml:space="preserve">
<g id="XMLID_1_">
	<path id="XMLID_2_" d="M30.753,1.889C29.598,0.547,27.465,0,23.392,0H8.607C4.441,0,2.272,0.582,1.122,2.01
		C0,3.403,0,5.454,0,8.294v5.412C0,19.207,1.331,22,8.607,22h14.785c3.532,0,5.489-0.483,6.755-1.667
		C31.446,19.12,32,17.137,32,13.706V8.294C32,5.299,31.913,3.236,30.753,1.889z M20.544,11.747l-6.713,3.428
		c-0.15,0.077-0.314,0.115-0.478,0.115c-0.186,0-0.371-0.049-0.535-0.146c-0.309-0.183-0.497-0.51-0.497-0.863V7.448
		c0-0.352,0.188-0.679,0.496-0.862c0.309-0.183,0.692-0.195,1.012-0.033l6.714,3.406c0.341,0.173,0.556,0.518,0.556,0.894
		S20.885,11.573,20.544,11.747z"/>
</g>
</svg>
